{
    "count": 4210002,
    "next": "https://devapi.almurut.com/api/test/racers/?page=2",
    "previous": null,
    "results": [
        {
            "id": 1381578,
            "name": "Dr. William Avery",
            "speed": 38
        },
        {
            "id": 1381579,
            "name": "Charles Edwards MD",
            "speed": 80
        },
        {
            "id": 1381580,
            "name": "Bailey Webb",
            "speed": 33
        },
        {
            "id": 1381581,
            "name": "Lori Byrd",
            "speed": 77
        },
        {
            "id": 1381582,
            "name": "Joshua Bowman",
            "speed": 65
        },
        {
            "id": 1381583,
            "name": "Trevor Burton",
            "speed": 54
        },
        {
            "id": 1381584,
            "name": "Crystal Morris",
            "speed": 56
        },
        {
            "id": 1381585,
            "name": "Christopher Brown",
            "speed": 73
        },
        {
            "id": 1381586,
            "name": "Samantha Simmons",
            "speed": 88
        },
        {
            "id": 1381587,
            "name": "David Turner",
            "speed": 51
        },
        {
            "id": 1381588,
            "name": "Grant Hendrix",
            "speed": 90
        },
        {
            "id": 1381589,
            "name": "David Spence",
            "speed": 91
        },
        {
            "id": 1381590,
            "name": "Ralph Fields",
            "speed": 41
        },
        {
            "id": 1381591,
            "name": "Randy Anthony",
            "speed": 46
        },
        {
            "id": 1381592,
            "name": "Jennifer Wilson",
            "speed": 45
        },
        {
            "id": 1381593,
            "name": "Rita Campbell",
            "speed": 99
        },
        {
            "id": 1381594,
            "name": "Andrew Scott",
            "speed": 41
        },
        {
            "id": 1381595,
            "name": "Keith Simmons",
            "speed": 35
        },
        {
            "id": 1381596,
            "name": "Wesley Barry",
            "speed": 66
        },
        {
            "id": 1381597,
            "name": "Paul Collier",
            "speed": 42
        },
        {
            "id": 1381598,
            "name": "Stephanie Mcdonald",
            "speed": 58
        },
        {
            "id": 1381599,
            "name": "Christina Ellis",
            "speed": 43
        },
        {
            "id": 1381600,
            "name": "Charles Hughes",
            "speed": 80
        },
        {
            "id": 1381601,
            "name": "Mario Gray",
            "speed": 47
        },
        {
            "id": 1381602,
            "name": "Carlos Copeland",
            "speed": 92
        },
        {
            "id": 1381603,
            "name": "Gregory Morales",
            "speed": 43
        },
        {
            "id": 1381604,
            "name": "Brianna Delgado",
            "speed": 36
        },
        {
            "id": 1381605,
            "name": "Michael Warren",
            "speed": 94
        },
        {
            "id": 1381606,
            "name": "Christopher Jarvis",
            "speed": 37
        },
        {
            "id": 1381607,
            "name": "Jordan Luna",
            "speed": 81
        },
        {
            "id": 1381608,
            "name": "Kayla Morgan",
            "speed": 49
        },
        {
            "id": 1381609,
            "name": "Karina Rivas",
            "speed": 72
        },
        {
            "id": 1381610,
            "name": "Richard Thompson",
            "speed": 57
        },
        {
            "id": 1381611,
            "name": "Patrick Turner",
            "speed": 77
        },
        {
            "id": 1381612,
            "name": "Briana Griffin",
            "speed": 35
        },
        {
            "id": 1381613,
            "name": "Joseph Morrison",
            "speed": 77
        },
        {
            "id": 1381614,
            "name": "Corey Mathews",
            "speed": 86
        },
        {
            "id": 1381615,
            "name": "Greg Carroll",
            "speed": 65
        },
        {
            "id": 1381616,
            "name": "Crystal Schultz",
            "speed": 94
        },
        {
            "id": 1381617,
            "name": "Victor Mitchell",
            "speed": 49
        },
        {
            "id": 1381618,
            "name": "Jeffrey King",
            "speed": 66
        },
        {
            "id": 1381619,
            "name": "Lauren Martinez",
            "speed": 76
        },
        {
            "id": 1381620,
            "name": "James Torres",
            "speed": 47
        },
        {
            "id": 1381621,
            "name": "Allen Ramsey",
            "speed": 72
        },
        {
            "id": 1381622,
            "name": "Margaret Cox",
            "speed": 52
        },
        {
            "id": 1381623,
            "name": "Donald Harris",
            "speed": 77
        },
        {
            "id": 1381624,
            "name": "Jason Nelson",
            "speed": 88
        },
        {
            "id": 1381625,
            "name": "Beth West",
            "speed": 79
        },
        {
            "id": 1381626,
            "name": "Steven Clark",
            "speed": 98
        },
        {
            "id": 1381627,
            "name": "Dean Mueller",
            "speed": 82
        },
        {
            "id": 1381628,
            "name": "Travis Ryan",
            "speed": 62
        },
        {
            "id": 1381629,
            "name": "Melissa Anderson",
            "speed": 39
        },
        {
            "id": 1381630,
            "name": "Kristin Reyes",
            "speed": 61
        },
        {
            "id": 1381631,
            "name": "Alexandra Harris",
            "speed": 52
        },
        {
            "id": 1381632,
            "name": "Debbie Moore",
            "speed": 55
        },
        {
            "id": 1381633,
            "name": "Clayton Hayes",
            "speed": 50
        },
        {
            "id": 1381634,
            "name": "Brittney Olson",
            "speed": 54
        },
        {
            "id": 1381635,
            "name": "Jared Jenkins",
            "speed": 77
        },
        {
            "id": 1381636,
            "name": "Jason Lopez",
            "speed": 76
        },
        {
            "id": 1381637,
            "name": "Patricia Johnson",
            "speed": 58
        },
        {
            "id": 1381638,
            "name": "Angelica Copeland",
            "speed": 43
        },
        {
            "id": 1381639,
            "name": "Megan Smith",
            "speed": 31
        },
        {
            "id": 1381640,
            "name": "Danielle Hart",
            "speed": 48
        },
        {
            "id": 1381641,
            "name": "Stefanie Little",
            "speed": 41
        },
        {
            "id": 1381642,
            "name": "Thomas Kramer",
            "speed": 53
        },
        {
            "id": 1381643,
            "name": "Nicole Townsend",
            "speed": 64
        },
        {
            "id": 1381644,
            "name": "Theresa Villarreal",
            "speed": 54
        },
        {
            "id": 1381645,
            "name": "Stephanie Hamilton",
            "speed": 32
        },
        {
            "id": 1381646,
            "name": "Kathryn Rodriguez",
            "speed": 92
        },
        {
            "id": 1381647,
            "name": "Alexandra Turner",
            "speed": 49
        },
        {
            "id": 1381648,
            "name": "Jennifer Martin",
            "speed": 98
        },
        {
            "id": 1381649,
            "name": "Valerie Smith",
            "speed": 38
        },
        {
            "id": 1381650,
            "name": "Christian Klein",
            "speed": 34
        },
        {
            "id": 1381651,
            "name": "Brandy Mckenzie",
            "speed": 51
        },
        {
            "id": 1381652,
            "name": "Margaret Watson",
            "speed": 37
        },
        {
            "id": 1381653,
            "name": "Amy Walker",
            "speed": 31
        },
        {
            "id": 1381654,
            "name": "Karen Nguyen",
            "speed": 69
        },
        {
            "id": 1381655,
            "name": "April Wells",
            "speed": 49
        },
        {
            "id": 1381656,
            "name": "Nicole Browning",
            "speed": 95
        },
        {
            "id": 1381657,
            "name": "Ashley Mcgee",
            "speed": 56
        },
        {
            "id": 1381658,
            "name": "Howard Singleton",
            "speed": 45
        },
        {
            "id": 1381659,
            "name": "Thomas Turner",
            "speed": 35
        },
        {
            "id": 1381660,
            "name": "Leslie Johnson",
            "speed": 92
        },
        {
            "id": 1381661,
            "name": "Dr. John Williams",
            "speed": 37
        },
        {
            "id": 1381662,
            "name": "Stephanie Young",
            "speed": 86
        },
        {
            "id": 1381663,
            "name": "Seth Gibson",
            "speed": 95
        },
        {
            "id": 1381664,
            "name": "Benjamin Williams",
            "speed": 36
        },
        {
            "id": 1381665,
            "name": "Joseph Powell",
            "speed": 83
        },
        {
            "id": 1381666,
            "name": "David Williams",
            "speed": 69
        },
        {
            "id": 1381667,
            "name": "Lisa Harrell",
            "speed": 53
        },
        {
            "id": 1381668,
            "name": "Brandon Haley",
            "speed": 61
        },
        {
            "id": 1381669,
            "name": "Emily Torres",
            "speed": 74
        },
        {
            "id": 1381670,
            "name": "Charles Green",
            "speed": 83
        },
        {
            "id": 1381671,
            "name": "Laurie Beard",
            "speed": 82
        },
        {
            "id": 1381672,
            "name": "Craig Moreno",
            "speed": 79
        },
        {
            "id": 1381673,
            "name": "Douglas Clark",
            "speed": 54
        },
        {
            "id": 1381674,
            "name": "Gregory Montgomery",
            "speed": 91
        },
        {
            "id": 1381675,
            "name": "Paul Thompson",
            "speed": 35
        },
        {
            "id": 1381676,
            "name": "Christopher Rose",
            "speed": 70
        },
        {
            "id": 1381677,
            "name": "Erika Jackson",
            "speed": 38
        }
    ]
}